<?xml version="1.0" encoding="UTF-8"?>
<svg width="44px" height="44px" viewBox="0 0 44 44" version="1.1" xmlns="http://www.w3.org/2000/svg"
    xmlns:xlink="http://www.w3.org/1999/xlink">
    <title>store__icon</title>
    <g id="Symbols" stroke="none" stroke-width="1" fill="none" fill-rule="evenodd">
        <circle r="22" cx="22" cy="22" fill="#FA4C35" />
        <g id="store__icon" fill="#FFFFFF" transform="scale(0.5 0.5) translate(25 27)" fill-rule="nonzero">
            <path
                d="M27.5714286,17 C28.8217143,17.8652095 30.3005714,18.3387978 31.8571429,18.3387978 C32.9794286,18.3387978 34.0377143,18.0769581 35,17.6306922 L35,17.6306922 L35,29.723133 C35,30.9799636 33.976,32 32.7142857,32 L32.7142857,32 L23.5714286,32 L23.5714286,22.8925319 L14.4285714,22.8925319 L14.4285714,32 L5.28571429,32 C4.024,32 3,30.9799636 3,29.723133 L3,29.723133 L3,17.6306922 C3.96228571,18.0769581 5.02057143,18.3387978 6.14285714,18.3387978 C7.69942857,18.3387978 9.17828571,17.8652095 10.4285714,17 C12.9291429,18.7326958 16.4994286,18.7326958 19,17 C21.5005714,18.7326958 25.0708571,18.7326958 27.5714286,17 Z M32.629375,0 C33.6908125,0 34.6158125,0.713142857 34.8725,1.73028571 L34.8725,1.73028571 L36.9653125,10.0091429 C36.9884375,10.0982857 37,10.192 37,10.2857143 C37,13.4354286 34.5371875,16 31.5078125,16 C29.7456875,16 28.1778125,15.1337143 27.171875,13.7897143 C26.1659375,15.1337143 24.5980625,16 22.8359375,16 C21.0738125,16 19.5059375,15.1337143 18.5,13.7897143 C17.4940625,15.1337143 15.923875,16 14.1640625,16 C12.40425,16 10.8340625,15.1337143 9.828125,13.7897143 C8.8221875,15.1337143 7.252,16 5.4921875,16 C2.4628125,16 0,13.4354286 0,10.2857143 C0,10.192 0.0115625,10.0982857 0.0346875,10.0091429 L0.0346875,10.0091429 L2.1275,1.73028571 C2.3865,0.713142857 3.3115,0 4.3729375,0 L4.3729375,0 Z">
            </path>
        </g>
    </g>
</svg>